C:\Users\matth\IdeaProjects\CIT-360-Personal-Project\src\main\java\Employee.java
C:\Users\matth\IdeaProjects\CIT-360-Personal-Project\src\main\java\Name.java
C:\Users\matth\IdeaProjects\CIT-360-Personal-Project\src\main\java\Add_Employee.java
C:\Users\matth\IdeaProjects\CIT-360-Personal-Project\src\main\java\Main.java
C:\Users\matth\IdeaProjects\CIT-360-Personal-Project\src\main\java\Validate.java
C:\Users\matth\IdeaProjects\CIT-360-Personal-Project\src\main\java\Servlet.java
C:\Users\matth\IdeaProjects\CIT-360-Personal-Project\src\main\java\Get_Employee.java
C:\Users\matth\IdeaProjects\CIT-360-Personal-Project\src\main\java\Physical_Address.java
